12.16194,27.497021,0
11.95324,28.261661,0
11.90653,32.325931,0
11.38242,32.871751,0
7.68958,32.853651,0
5.57785,31.856151,0
3.81634,31.913011,0
2.71265,32.920651,0
2.10825,33.592651,0
1.96361,34.689061,0
2.4547,35.934591,0
2.51487,37.962201,0
2.51037,38.963841,0
2.50607,39.990901,0
2.50297,40.907901,0
2.49997,41.499221,0
1.22119,42.210511,0
1.14109,42.634561,0
1.29125,43.244061,0
2.21547,43.481001,0
2.95381,43.010331,0
3.00327,42.378651,0
2.50727,41.514051,0
2.49987,40.906101,0
2.50627,39.992501,0
2.50907,38.953811,0
2.51757,37.955701,0
2.90044,37.047971,0
3.13279,36.492271,0
3.6356,36.211651,0
5.33866,36.233651,0
8.06766,36.233651,0
8.87141,36.233651,0
10.83807,36.233651,0
13.18847,36.233651,0
15.58077,36.255611,0
16.11897,36.255611,0
16.47797,36.014441,0
16.72986,35.646891,0
16.72986,34.834271,0
16.72986,31.420651,0
16.72986,30.256651,0
17.1049,29.383651,0
18.4068,28.801651,0
19.89542,28.824651,0
34.92367,28.801651,0
62.14307,28.801651,0
64.94067,28.779651,0
72.34987,31.062651,0
88.52485,31.062651,0
116.57256,31.108501,0
118.04663,30.678791,0
118.98287,29.853651,0
119.74397,28.689651,0
123.74672,22.731941,0
128.92157,15.102651,0
135.20002,5.92722,0
136.40065,4.19961,0
137.43983,3.56984,0
138.90526,3.55265,0
146.1086,3.59665,0
204.95547,3.55265,0
210.05907,3.57465,0
227.79407,3.57465,0
233.05404,3.54216,0
234.49909,3.40224,0
241.23722,1.94065,0
242.52681,1.89565,0
273.34275,1.89565,0
284.40647,1.91865,0
294.04537,1.87365,0
297.29107,3.86565,0
319.72367,3.86565,0
322.53487,3.86565,0
323.31827,3.48565,0
323.81077,2.83565,0
324.61657,1.78365,0
325.55667,1.38065,0
329.18397,1.42565,0
330.14647,1.96265,0
330.34797,2.83565,0
330.81797,3.66465,0
331.51197,3.97765,0
335.23257,3.99965,0
336.28467,4.02265,0
337.06817,4.38065,0
337.38147,5.18665,0
337.42627,11.006651,0
337.40387,12.707651,0
337.26957,13.580651,0
336.68757,14.184651,0
335.70267,14.229651,0
331.02437,14.229651,0
329.94987,14.229651,0
329.25597,13.781651,0
328.94257,13.020651,0
328.94257,10.610191,0
328.96497,5.9331,0
328.94257,3.77665,0
328.62917,3.28365,0
327.91287,3.32865,0
325.92067,4.13465,0
323.03307,5.05165,0
296.75387,5.09665,0
293.39617,3.03765,0
241.51887,3.01465,0
232.37637,5.23165,0
186.30927,5.25365,0
183.35457,5.25365,0
175.04997,5.23165,0
172.96817,5.25365,0
166.11466,5.96737,0
156.12872,5.94651,0
154.43557,6.069871,0
150.30915,6.127501,0
148.49138,6.150521,0
146.56598,6.150521,0
145.07425,6.469251,0
143.7541,6.440091,0
142.90635,5.76092,0
142.82556,2.71009,0
142.64246,1.87391,0
141.65283,1.1411,0
135.4894,1.1872,0
134.2559,1.25791,0
133.03727,2.02463,0
131.73234,3.88432,0
123.65387,16.199201,0
118.44332,24.590031,0
116.51757,27.618621,0
115.53888,28.416881,0
114.29727,28.712201,0
111.65737,28.712201,0
97.77907,28.712201,0
95.69727,28.667201,0
94.48857,27.615201,0
92.98877,26.876201,0
90.44277,26.899201,0
80.88757,26.876201,0
77.14457,26.899201,0
74.00287,26.317201,0
69.55227,26.317201,0
62.02547,26.317201,0
53.87987,26.339201,0
21.64582,26.317201,0
20.75257,26.339201,0
18.95647,26.897801,0
17.86596,26.898901,0
13.11285,26.903901,0
